…
``` r
select(acs2017_ny,"AGE","LABFORCE")
```

    ## # A tibble: 196,585 x 2
    ##      AGE                       LABFORCE
    ##    <dbl>                      <int+lbl>
    ##  1    72 2 [Yes, in the labor force]   
    ##  2    72 2 [Yes, in the labor force]   
    ##  3    31 2 [Yes, in the labor force]   
    ##  4    28 2 [Yes, in the labor force]   
    ##  5    54 2 [Yes, in the labor force]   
    ##  6    45 1 [No, not in the labor force]
    ##  7    84 1 [No, not in the labor force]
    ##  8    71 2 [Yes, in the labor force]   
    ##  9    68 1 [No, not in the labor force]
    ## 10    37 2 [Yes, in the labor force]   
    ## # ... with 196,575 more rows
…
